{
  "1": "{Product Name},[Accessory Options]",
  "2": "{Product Name},[Carcass Material],[Carcass Internal Finsh],[Shutter Opening],[Carcass Finish],[Shutter Material],[Shutter Finish Color],[Shutter Finish],[Finish],[Size]",
  "3": "{Product Name},[Color],Automation [Automation]",
  "4": "{Product Name},[Fabric Type],[Color],[Size],[Curtain Combination],[Main Currtain] Main Curtain,[Sets of Main Curtain],[Sheer Curtian] Sheer Curtain,[Set of Sheer Curtain]",
  "5": "{Product Name},[Finish],[Color],[Colour Temperature],[Support Type],[Size],[Thickness]",
  "6": "{Product Name},[Finish],[Frame Details] of Depth [Depth],Door - [Width] x [Height]",
  "7": "{Product Name},[Finish],[Metal Finish]",
  "8": "{Product Name},[Finish],[Wall Width] x [Wall Height]",
  "9": "{Product Name},[Mesh Quality],[Operating System],[Profile Brand],[Profile Color]",
  "10": "{Product Name},[Modules]",
  "11": "{Product Name},[Opening],[Width] x [Length]",
  "12": "{Product Name},[Rafter Finish],[Material],[Quality],[Cove Details],[Room Length],[Room Width],Cross Section [Cross Section],of Length[Rafter Length],[Light Option]",
  "13": "{Product Name},[Shutter Finish],[Knobs/Handles] Handle,[Swing Type],[Shutter Width],[Side Unit Width]",
  "14": "{Product Name},[Shutter Material],[Shutter Finish Color],[Glass-Mirror]",
  "15": "{Product Name},[Size],Bulbs Included - [Bulbs Included]",
  "16": "{Product Name},[Stitching Style],[Lining Type]",
  "17": "{Product Name},[Swing Type],[Profile Color],[Glass Thickness],[Width] x [Height]",
  "18": "{Product Name},[Upholstery] Upholstery,[Finish] Finish,[Color] Color,[Wood Finish] Wood Finish,[Configuration] Configuration,[Shutter Opening] Shutter Openings,[Surface Design] Surface Design",
  "19": "{Product Name},[Upholstery] Upholstery,[Legs] Legs,[Finish] Finish,[Color],[Bed Finish] Bed,[Storage Finish] Storage,[Side Finish] Side,[Top Bed Finish] Top Bed,[Bottom Bed Finish] Bottom Bed,[Drawer Finish] Drawer",
  "20": "{Product Name},[Upholstery] Upholstery,[Legs] Legs,[Finish] Finish,[Color],[Table Top] Table Top,[Add-on Top] Add-on Top,[Drawer Finish] Drawer,[Frame Finish] Frame,[Metal Finish],[Base Style] Base,[Surface Design] Surface,[Handle Style] Handle",
  "21": "{Product Name},[Upholstery] Upholstery,[Legs] Legs,[Finish] Finish,[Size],[Structure] Structure",
  "22": "{Product Name},[Wallpaper]",
  "23": "{Product Name},Fan Point [Fan Relocation upto 2mtr],New Point [New Fan Point]",
  "24": "{Product Name},Length [Strip Light Length],Additional [Additional Controls]",
  "25": "{Product Name},Points [Spot Light Points],Total Controls [Total Controls],Additional [Additional Controls]",
  "26": "{Product Name},Remote Included - [Remoted included]",
  "27": "{Product Name},with [Switches] Switches,[AC] AC,[Geyser] Geyser,[Dimmer/Regulator] Dimmer/Regulator,[Curtain Controller] Curtain Controller,[Gas Leak Sensor] Gas Leak Sensor,[Light Motion Sensor] Light Motion Sensor",
  "28": "{Product Name}"
}