{
  "aws": {
    "access_key":"AKIAJPWZUYCISLTZWC4A",
    "secret_key":"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",
    "region": "ap-southeast-1"
  },
  "canvas": {
    "height":600,
    "width":800
  },
  "s3":{
    "bucket":"content-test.livspace.com",
    "path":"images/MDB/"
  },
  "security":{
    "X-Auth-Token":"TdJD7D829Mfa36C23kUGZK1U1fjzDClc"
  },
  "logger":{
    "path" : "/var/log/node_fabric/"
  }
}
